{
    "fb_access_token": "EAADrDTjiUSABANlFZB7ZAHLDrAnOIss89iTfvjYzATivsvNVk754OoulEQxSlmZBZBtseXxD6ZBoFnr9phG6edGQDXnFFsmLb3DC0JlmcMkuEirAENcicQiuKunyxPQOGOqoI4LPdM4VccCzfzd5IzscIe4bju0ZBVKWWsZAbIDXqopGZBYZAXogW",
    "fb_verify_token": "bot_messenger",
    "server_url": "https://90016072.ngrok.io"
}